^D:\PROJECTS\OPENGL\OPENGL\OPENGL\DEBUG\OPENGL.OBJ|D:\PROJECTS\OPENGL\OPENGL\OPENGL\DEBUG\STDAFX.OBJ|D:\PROJECTS\OPENGL\OPENGL\OPENGL\LIBRARY\GLAUX.LIB|D:\PROJECTS\OPENGL\OPENGL\OPENGL\LIBRARY\GLU32.LIB|D:\PROJECTS\OPENGL\OPENGL\OPENGL\LIBRARY\GLUT32.LIB|D:\PROJECTS\OPENGL\OPENGL\OPENGL\LIBRARY\OPENGL32.LIB
D:\PROJECTS\OPENGL\OPENGL\DEBUG\OPENGL.EXE
D:\PROJECTS\OPENGL\OPENGL\DEBUG\OPENGL.ILK
D:\PROJECTS\OPENGL\OPENGL\DEBUG\OPENGL.PDB
